{
  "project_info": {
    "project_number": "974396371815",
    "firebase_url": "https://primrose-b920f.firebaseio.com",
    "project_id": "primrose-b920f",
    "storage_bucket": "primrose-b920f.appspot.com"
  },
  "client": [
    {
      "client_info": {
        "mobilesdk_app_id": "1:974396371815:android:4b3996afe76cb9f1",
        "android_client_info": {
          "package_name": "com.example.nds.primroza"
        }
      },
      "oauth_client": [
        {
          "client_id": "974396371815-kd1icmhtqv2t3u276c62edvt040i371o.apps.googleusercontent.com",
          "client_type": 1,
          "android_info": {
            "package_name": "com.example.nds.primroza",
            "certificate_hash": "fed873972a110b5feaab5f603eb6222ebd617ef4"
          }
        },
        {
          "client_id": "974396371815-cml6cjkugeg72308v3fr4ur545qajsnq.apps.googleusercontent.com",
          "client_type": 3
        }
      ],
      "api_key": [
        {
          "current_key": "AIzaSyDJ5BvqL7ZV3mYa5-IyFjSL4ye_6awy3pc"
        }
      ],
      "services": {
        "analytics_service": {
          "status": 1
        },
        "appinvite_service": {
          "status": 2,
          "other_platform_oauth_client": [
            {
              "client_id": "974396371815-cml6cjkugeg72308v3fr4ur545qajsnq.apps.googleusercontent.com",
              "client_type": 3
            }
          ]
        },
        "ads_service": {
          "status": 2
        }
      }
    }
  ],
  "configuration_version": "1"
}